<?xml version="1.0" encoding="utf-8"?>
<!-- Generator: Adobe Illustrator 23.0.1, SVG Export Plug-In . SVG Version: 6.00 Build 0)  -->
<svg version="1.1" id="Слой_1" xmlns="http://www.w3.org/2000/svg" xmlns:xlink="http://www.w3.org/1999/xlink" x="0px" y="0px"
	 viewBox="0 0 50 50" style="enable-background:new 0 0 50 50;" xml:space="preserve">
<style type="text/css">
	.st0{fill-rule:evenodd;clip-rule:evenodd;fill:#2FB4E9;}
</style>
<g>
	<path class="st0" d="M25.1,5.89L25.1,5.89l-1.04,0.05l-0.93,0.05l-0.93,0.1L21.27,6.3l-0.93,0.21l-0.93,0.26l-0.83,0.31L17.7,7.38
		l-0.83,0.41l-0.83,0.36l-0.78,0.52l-0.78,0.41l-0.72,0.57l-0.72,0.57l-0.67,0.57l-0.67,0.62l-0.62,0.67l-0.57,0.67l-0.57,0.72
		l-0.52,0.72l-0.47,0.77l-0.47,0.77l-0.41,0.82l-0.41,0.82l-0.31,0.88l-0.31,0.82l-0.26,0.88l-0.21,0.98l-0.21,0.93l-0.1,0.93
		L6.2,23.71l-0.05,0.93l0,0l0.05,1.03l0.05,0.93l0.1,0.93l0.21,0.93l0.21,0.93l0.26,0.93l0.31,0.82l0.31,0.88l0.41,0.82l0.41,0.82
		l0.47,0.77l0.47,0.77l0.52,0.72l0.57,0.72l0.57,0.67l0.62,0.67l0.67,0.62l0.67,0.57l0.72,0.57l0.72,0.57l0.78,0.41l0.78,0.52
		l0.83,0.36L17.7,42l0.88,0.31l0.83,0.31l0.93,0.26l0.93,0.21l0.93,0.21l0.93,0.1l0.93,0.05l1.04,0.05l0,0l0.93-0.05l0.93-0.05
		l0.93-0.1l0.93-0.21l0.98-0.21l0.88-0.26l0.88-0.31L32.4,42l0.83-0.41l0.83-0.36l0.78-0.52l0.78-0.41l0.72-0.57l0.72-0.57
		l0.67-0.57l0.67-0.62l0.62-0.67l0.57-0.67l0.57-0.72l0.57-0.72l0.47-0.77l0.47-0.77l0.36-0.82l0.41-0.82l0.31-0.88l0.31-0.82
		l0.26-0.93l0.21-0.93l0.21-0.93l0.1-0.93l0.05-0.93l0.05-1.03l0,0l-0.05-0.93l-0.05-0.93l-0.1-0.93l-0.21-0.93l-0.21-0.98
		l-0.26-0.88l-0.31-0.82l-0.31-0.88l-0.41-0.82l-0.36-0.82l-0.47-0.77l-0.47-0.77l-0.57-0.72l-0.57-0.72l-0.57-0.67l-0.62-0.67
		l-0.67-0.62l-0.67-0.57l-0.72-0.57l-0.72-0.57l-0.78-0.41l-0.78-0.52l-0.83-0.36L32.4,7.38l-0.83-0.31L30.7,6.76l-0.88-0.26
		L28.83,6.3L27.9,6.09l-0.93-0.1l-0.93-0.05L25.1,5.89L25.1,5.89L25.1,5.89L25.1,5.89z M34.73,30v3.61H22.51v3.3h-4.61v-3.3h-4.09
		V30h4.09v-2.11h-4.09v-4.12h4.09V12.89h7.4l0,0h1.92l1.55,0.05l1.19,0.1l0.83,0.21l0,0l0.52,0.15l0.41,0.15l0.47,0.26l0.41,0.31
		l0.41,0.26l0.36,0.41l0.36,0.36l0.31,0.46l0,0l0.36,0.41l0.26,0.52l0.21,0.57l0.16,0.52l0.21,0.62l0.1,0.67l0.05,0.67v0.72l0,0
		l-0.05,1.03l-0.1,0.98l-0.31,0.93l-0.31,0.77l0,0l-0.41,0.72l-0.41,0.62l-0.52,0.57l-0.62,0.46l0,0l-0.52,0.36l-0.62,0.36
		l-0.62,0.26l-0.62,0.15l0,0l-0.88,0.1l-1.09,0.1l-1.29,0.15h-1.5h-3V30H34.73L34.73,30L34.73,30z M25.1,1.2L25.1,1.2l-1.24,0.05
		L22.62,1.3l-1.14,0.15l-1.19,0.26l-1.14,0.26l-1.14,0.26l-1.09,0.41l-1.04,0.41L14.8,3.52l-0.98,0.57L12.83,4.6l-0.98,0.62
		l-0.93,0.67l-0.88,0.67L9.21,7.33L8.38,8.1L7.6,8.93L6.88,9.75l-0.72,0.88l-0.67,0.93l-0.62,0.98l-0.52,0.98l-0.57,0.98L3.3,15.57
		L2.89,16.6l-0.36,1.08l-0.31,1.13l-0.26,1.13L1.7,21.14l-0.1,1.13l-0.1,1.24l-0.05,1.13l0,0l0.05,1.24l0.1,1.24l0.1,1.13l0.26,1.18
		l0.26,1.13l0.31,1.13l0.36,1.08l0.41,1.03l0.47,1.08l0.57,0.98l0.52,0.98l0.62,0.98l0.67,0.93l0.72,0.88l0.72,0.82l0.78,0.82
		l0.83,0.77l0.83,0.77l0.88,0.67l0.93,0.67l0.98,0.62l0.98,0.52l0.98,0.57l1.09,0.46l1.04,0.41l1.09,0.41l1.14,0.26l1.14,0.26
		l1.19,0.26l1.14,0.1l1.24,0.1l1.24,0.05l0,0l1.14-0.05l1.24-0.1l1.14-0.1l1.19-0.26l1.14-0.26l1.14-0.26l1.09-0.41l1.04-0.41
		l1.09-0.46l0.98-0.57l0.98-0.52l0.98-0.62l0.93-0.67l0.88-0.67l0.88-0.77l0.78-0.77l0.78-0.82l0.78-0.82l0.67-0.88l0.67-0.93
		l0.62-0.98l0.52-0.98l0.57-0.98l0.47-1.08l0.41-1.03l0.41-1.08l0.26-1.13l0.26-1.13l0.26-1.18l0.16-1.13l0.05-1.24l0.05-1.24l0,0
		l-0.05-1.13l-0.05-1.24l-0.16-1.13l-0.26-1.18l-0.26-1.13l-0.26-1.13l-0.41-1.08l-0.41-1.03l-0.47-1.08l-0.57-0.98l-0.52-0.98
		l-0.62-0.98l-0.67-0.93l-0.67-0.88L42.5,8.93L41.72,8.1l-0.78-0.77l-0.88-0.77l-0.88-0.67l-0.93-0.67L37.27,4.6l-0.98-0.52
		L35.3,3.52l-1.09-0.46l-1.04-0.41l-1.09-0.41l-1.14-0.26l-1.14-0.26l-1.19-0.26L27.48,1.3l-1.24-0.05L25.1,1.2L25.1,1.2L25.1,1.2
		L25.1,1.2z M25.1,45.04L25.1,45.04h-1.09l-1.04-0.1l-1.09-0.1l-0.98-0.26l-0.93-0.21l-0.98-0.26l-0.98-0.31l-0.93-0.36l-0.88-0.41
		l-0.88-0.41l-0.83-0.52l-0.83-0.57l-0.83-0.52l-0.78-0.62l-0.72-0.67l-0.72-0.67l-0.67-0.72l-0.67-0.72l-0.62-0.77l-0.52-0.77
		l-0.57-0.82l-0.47-0.88L6.62,33.5L6.2,32.62L5.84,31.7l-0.31-0.98l-0.26-0.93l-0.21-0.98L4.8,27.83l-0.1-1.08l-0.05-1.03L4.6,24.64
		l0,0l0.05-0.98l0.05-1.03l0.1-1.08l0.26-0.98l0.21-0.98l0.26-0.93l0.31-0.98l0.36-0.93l0.41-0.88l0.47-0.88l0.47-0.88l0.57-0.82
		l0.52-0.77l0.62-0.77l0.67-0.72l0.67-0.72l0.72-0.67l0.72-0.67l0.78-0.62l0.83-0.52l0.83-0.57l0.83-0.52l0.88-0.41l0.88-0.41
		l0.93-0.36l0.98-0.31l0.98-0.26l0.93-0.26l0.98-0.21l1.09-0.1l1.04-0.1h1.09l0,0h1.04l0.98,0.1l1.09,0.1l0.98,0.21l0.98,0.26
		l0.93,0.26l0.98,0.31l0.93,0.36l0.88,0.41l0.88,0.41l0.88,0.52l0.83,0.57l0.78,0.52l0.78,0.62l0.72,0.67l0.72,0.67l0.67,0.72
		l0.67,0.72l0.62,0.77l0.52,0.77l0.57,0.82l0.52,0.88l0.41,0.88l0.41,0.88l0.36,0.93l0.36,0.98l0.26,0.93l0.21,0.98l0.21,0.98
		l0.1,1.08l0.1,1.03v0.98l0,0v1.08l-0.1,1.03l-0.1,1.08l-0.21,0.98l-0.21,0.98l-0.26,0.93l-0.36,0.98l-0.36,0.93l-0.41,0.88
		l-0.41,0.88l-0.52,0.88l-0.57,0.82l-0.52,0.77l-0.62,0.77l-0.67,0.72l-0.67,0.72l-0.72,0.67l-0.72,0.67l-0.78,0.62l-0.78,0.52
		l-0.83,0.57l-0.88,0.52l-0.88,0.41l-0.88,0.41l-0.93,0.36l-0.98,0.31l-0.93,0.26l-0.98,0.21l-0.98,0.26l-1.09,0.1l-0.98,0.1H25.1
		L25.1,45.04L25.1,45.04L25.1,45.04z M25.15,23.76L25.15,23.76l1.19-0.05l0.98-0.05l0.78-0.1l0.57-0.15l0,0l0.47-0.21l0.36-0.31
		l0.36-0.26l0.26-0.41l0,0l0.21-0.41l0.21-0.46l0.1-0.46v-0.52l0,0v-0.67l-0.21-0.57l-0.21-0.46l-0.31-0.46l0,0l-0.41-0.36
		l-0.41-0.36l-0.52-0.21l-0.52-0.15l0,0l-0.52-0.05l-0.72-0.05l-2.07-0.1h-2.23v6.85H25.15L25.15,23.76L25.15,23.76L25.15,23.76z"/>
</g>
</svg>
