{
  "azsID": 1163413,
  "begShiftID": 80470,
  "dept": [
    {
      "cashPay": 0.00,
      "creditPay": 0.00,
      "deptName": "Услуги",
      "nonCashPay": 0.00,
      "orderNo": 1,
      "mGroupNo": 4,
      "id": 1
    },
    {
      "cashPay": 0.00,
      "creditPay": 0.00,
      "deptName": "Масла",
      "nonCashPay": 0.00,
      "orderNo": 1,
      "mGroupNo": 2,
      "id": 2
    },
    {
      "cashPay": 23443.00,
      "creditPay": 0.00,
      "deptName": "Cопут. товары",
      "nonCashPay": 17558.00,
      "orderNo": 2,
      "mGroupNo": 2,
      "id": 3
    },
    {
      "cashPay": 246297.57,
      "creditPay": 0.00,
      "deptName": "Нефтепродукты",
      "nonCashPay": 531403.22,
      "orderNo": 1,
      "mGroupNo": 1,
      "id": 4
    },
    {
      "cashPay": 0.00,
      "creditPay": 0.00,
      "deptName": "Автохимия",
      "nonCashPay": 0.00,
      "orderNo": 3,
      "mGroupNo": 2,
      "id": 5
    },
    {
      "cashPay": 0.00,
      "creditPay": 0.00,
      "deptName": "Кул. прод",
      "nonCashPay": 0.00,
      "orderNo": 4,
      "mGroupNo": 3,
      "id": 6
    },
    {
      "cashPay": 0.00,
      "creditPay": 0.00,
      "deptName": "Мобильные платежи",
      "nonCashPay": 0.00,
      "orderNo": 1,
      "mGroupNo": 5,
      "id": 7
    },
    {
      "cashPay": 0.00,
      "creditPay": 0.00,
      "deptName": "Оплата кредита",
      "nonCashPay": 0.00,
      "orderNo": 3,
      "mGroupNo": 3,
      "id": 8
    },
    {
      "cashPay": 0.00,
      "creditPay": 0.00,
      "deptName": "Продажа карт",
      "nonCashPay": 0.00,
      "orderNo": 1,
      "mGroupNo": 3,
      "id": 9
    },
    {
      "cashPay": 0.00,
      "creditPay": 0.00,
      "deptName": "Авансы",
      "nonCashPay": 0.00,
      "orderNo": 2,
      "mGroupNo": 3,
      "id": 10
    }
  ],
  "diverg": null,
  "ecrZnums": [
    {
      "amountinCash": 127601.59,
      "cashBackSum": 0.00,
      "collectionSum": 104000.00,
      "dateTime": 1515790424181,
      "deposition": 0.00,
      "saleSum": 128287.71,
      "serialNumber": "0255330003002660",
      "nZrep": 21,
      "id": 1
    },
    {
      "amountinCash": 127601.59,
      "cashBackSum": 0.00,
      "collectionSum": 104000.00,
      "dateTime": 1515790424181,
      "deposition": 0.00,
      "saleSum": 128287.71,
      "serialNumber": "0616060003002659",
      "nZrep": 21,
      "id": 2
    },
    {
      "amountinCash": 138740.70,
      "cashBackSum": 0.00,
      "collectionSum": 169000.00,
      "dateTime": 1515790424181,
      "deposition": 0.00,
      "saleSum": 141452.86,
      "serialNumber": "0255330003002660",
      "nZrep": 21,
      "id": 3
    },
    {
      "amountinCash": 138740.70,
      "cashBackSum": 0.00,
      "collectionSum": 169000.00,
      "dateTime": 1515790424181,
      "deposition": 0.00,
      "saleSum": 141452.86,
      "serialNumber": "0616060003002659",
      "nZrep": 21,
      "id": 4
    }
  ],
  "endShiftID": 80470,
  "expense": [
    {
      "articleName": "АИ-95",
      "endRestVol": 28092.430,
      "externalStrID": "4",
      "orderNo": -1,
      "payType": "",
      "payTypeName": "Собственный",
      "paytypeID": 1,
      "saleMon": 220519.85,
      "saleVol": 5587.600,
      "id": 1
    },
    {
      "articleName": "ДтОпти",
      "endRestVol": null,
      "externalStrID": "24",
      "orderNo": 185,
      "payType": "PAY_TYPE_CASH",
      "payTypeName": "Наличный со скидкой по ПЛ",
      "paytypeID": 185,
      "saleMon": 0.00,
      "saleVol": 36.100,
      "id": 2
    },
    {
      "articleName": "Аи-92",
      "endRestVol": null,
      "externalStrID": "2",
      "orderNo": 1000000,
      "payType": "PAY_TYPE_BANK",
      "payTypeName": "Банк.карты",
      "paytypeID": 2,
      "saleMon": 83185.78,
      "saleVol": 2190.540,
      "id": 3
    },
    {
      "articleName": "ДтОпти",
      "endRestVol": null,
      "externalStrID": "24",
      "orderNo": 8,
      "payType": "PAY_TYPE_PETROL_CARD",
      "payTypeName": "Карты Петрол+",
      "paytypeID": 8,
      "saleMon": 34555.06,
      "saleVol": 851.110,
      "id": 4
    },
    {
      "articleName": "Аи-92",
      "endRestVol": null,
      "externalStrID": "2",
      "orderNo": 81,
      "payType": "PAY_TYPE_PETROL_CARD",
      "payTypeName": "Карты Онлайн",
      "paytypeID": 81,
      "saleMon": 15060.16,
      "saleVol": 395.280,
      "id": 5
    },
    {
      "articleName": "АИ-95",
      "endRestVol": null,
      "externalStrID": "4",
      "orderNo": 8,
      "payType": "PAY_TYPE_PETROL_CARD",
      "payTypeName": "Карты Петрол+",
      "paytypeID": 8,
      "saleMon": 8767.43,
      "saleVol": 213.060,
      "id": 6
    },
    {
      "articleName": "ДтОпти",
      "endRestVol": 14934.280,
      "externalStrID": "24",
      "orderNo": -1,
      "payType": "",
      "payTypeName": "Собственный",
      "paytypeID": 1,
      "saleMon": 289462.18,
      "saleVol": 7165.710,
      "id": 7
    },
    {
      "articleName": "АИ-95",
      "endRestVol": null,
      "externalStrID": "4",
      "orderNo": 185,
      "payType": "PAY_TYPE_CASH",
      "payTypeName": "Наличный со скидкой по ПЛ",
      "paytypeID": 185,
      "saleMon": 0.00,
      "saleVol": 221.800,
      "id": 8
    },
    {
      "articleName": "GD95",
      "endRestVol": null,
      "externalStrID": "10",
      "orderNo": 1000000,
      "payType": "PAY_TYPE_BANK",
      "payTypeName": "Банк.карты",
      "paytypeID": 2,
      "saleMon": 39561.53,
      "saleVol": 941.940,
      "id": 9
    },
    {
      "articleName": "АИ-95",
      "endRestVol": null,
      "externalStrID": "4",
      "orderNo": 0,
      "payType": "PAY_TYPE_CASH",
      "payTypeName": "Наличные",
      "paytypeID": 0,
      "saleMon": 89628.02,
      "saleVol": 2178.080,
      "id": 10
    },
    {
      "articleName": "GD95",
      "endRestVol": null,
      "externalStrID": "10",
      "orderNo": 81,
      "payType": "PAY_TYPE_PETROL_CARD",
      "payTypeName": "Карты Онлайн",
      "paytypeID": 81,
      "saleMon": 4567.65,
      "saleVol": 108.110,
      "id": 11
    },
    {
      "articleName": "ДтОпти",
      "endRestVol": null,
      "externalStrID": "24",
      "orderNo": 0,
      "payType": "PAY_TYPE_CASH",
      "payTypeName": "Наличные",
      "paytypeID": 0,
      "saleMon": 41906.11,
      "saleVol": 1032.170,
      "id": 12
    },
    {
      "articleName": "GD95",
      "endRestVol": null,
      "externalStrID": "10",
      "orderNo": 8,
      "payType": "PAY_TYPE_PETROL_CARD",
      "payTypeName": "Карты Петрол+",
      "paytypeID": 8,
      "saleMon": 1611.84,
      "saleVol": 38.150,
      "id": 13
    },
    {
      "articleName": "GD95",
      "endRestVol": null,
      "externalStrID": "10",
      "orderNo": 185,
      "payType": "PAY_TYPE_CASH",
      "payTypeName": "Наличный со скидкой по ПЛ",
      "paytypeID": 185,
      "saleMon": 0.00,
      "saleVol": 19.670,
      "id": 14
    },
    {
      "articleName": "GD95",
      "endRestVol": 13450.190,
      "externalStrID": "10",
      "orderNo": -1,
      "payType": "",
      "payTypeName": "Собственный",
      "paytypeID": 1,
      "saleMon": 75605.42,
      "saleVol": 1817.000,
      "id": 15
    },
    {
      "articleName": "Аи-92",
      "endRestVol": null,
      "externalStrID": "2",
      "orderNo": 0,
      "payType": "PAY_TYPE_CASH",
      "payTypeName": "Наличные",
      "paytypeID": 0,
      "saleMon": 84899.04,
      "saleVol": 2231.660,
      "id": 16
    },
    {
      "articleName": "Аи-92",
      "endRestVol": null,
      "externalStrID": "2",
      "orderNo": 185,
      "payType": "PAY_TYPE_CASH",
      "payTypeName": "Наличный со скидкой по ПЛ",
      "paytypeID": 185,
      "saleMon": 0.00,
      "saleVol": 240.860,
      "id": 17
    },
    {
      "articleName": "Аи-92",
      "endRestVol": null,
      "externalStrID": "2",
      "orderNo": 8,
      "payType": "PAY_TYPE_PETROL_CARD",
      "payTypeName": "Карты Петрол+",
      "paytypeID": 8,
      "saleMon": 8968.36,
      "saleVol": 235.390,
      "id": 18
    },
    {
      "articleName": "ДтОпти",
      "endRestVol": null,
      "externalStrID": "24",
      "orderNo": 81,
      "payType": "PAY_TYPE_PETROL_CARD",
      "payTypeName": "Карты Онлайн",
      "paytypeID": 81,
      "saleMon": 138007.52,
      "saleVol": 3399.200,
      "id": 19
    },
    {
      "articleName": "ДтОпти",
      "endRestVol": null,
      "externalStrID": "24",
      "orderNo": 1000000,
      "payType": "PAY_TYPE_BANK",
      "payTypeName": "Банк.карты",
      "paytypeID": 2,
      "saleMon": 74993.49,
      "saleVol": 1847.130,
      "id": 20
    },
    {
      "articleName": "АИ-95",
      "endRestVol": null,
      "externalStrID": "4",
      "orderNo": 1000000,
      "payType": "PAY_TYPE_BANK",
      "payTypeName": "Банк.карты",
      "paytypeID": 2,
      "saleMon": 111491.65,
      "saleVol": 2716.270,
      "id": 21
    },
    {
      "articleName": "GD95",
      "endRestVol": null,
      "externalStrID": "10",
      "orderNo": 0,
      "payType": "PAY_TYPE_CASH",
      "payTypeName": "Наличные",
      "paytypeID": 0,
      "saleMon": 29864.40,
      "saleVol": 709.130,
      "id": 22
    },
    {
      "articleName": "АИ-95",
      "endRestVol": null,
      "externalStrID": "4",
      "orderNo": 81,
      "payType": "PAY_TYPE_PETROL_CARD",
      "payTypeName": "Карты Онлайн",
      "paytypeID": 81,
      "saleMon": 10632.75,
      "saleVol": 258.390,
      "id": 23
    },
    {
      "articleName": "Аи-92",
      "endRestVol": 30043.660,
      "externalStrID": "2",
      "orderNo": -1,
      "payType": "",
      "payTypeName": "Собственный",
      "paytypeID": 1,
      "saleMon": 192113.34,
      "saleVol": 5293.730,
      "id": 24
    }
  ],
  "goods": [
    {
      "beginRestMon": 325429492,
      "endRestMon": 339326321,
      "expenseMon": 432046,
      "receiptMon": 17428024,
      "revisionMon": 0,
      "saleMon": 3099149,
      "sectionCode": 9,
      "sectionName": "ПРОЧИЕ",
      "id": 1
    }
  ],
  "operators": "Богданова О.Н. Чернель О.Н. Череповицына Н.В. Зыкова А.А. Елисеева Е.А. Алексеева Ю.С.",
  "overflow": null,
  "receipt": null,
  "saldo": [
    {
      "nameSaldo": "Принято по смене:",
      "saldoMon": 269601.72,
      "st5Key": "st5_sk_startcash",
      "id": 1
    },
    {
      "nameSaldo": "  в т.ч. в кассе :",
      "saldoMon": 266342.29,
      "st5Key": "st5_sk_endcash_in_ecrs",
      "id": 2
    },
    {
      "nameSaldo": "Сдано в кассу ПНПО:",
      "saldoMon": 0.00,
      "st5Key": "st5_sk_inkasskass",
      "id": 3
    },
    {
      "nameSaldo": "Выручка по ФР:",
      "saldoMon": 269740.57,
      "st5Key": "st5_sk_realiz",
      "id": 4
    },
    {
      "nameSaldo": "Внесено в кассу:",
      "saldoMon": 0.00,
      "st5Key": "st5_sk_podkreplenie",
      "id": 5
    },
    {
      "nameSaldo": "Сдано в банк:",
      "saldoMon": 273000.00,
      "st5Key": "st5_sk_inkassbank",
      "id": 6
    },
    {
      "nameSaldo": "Расхождение ТРК и кассы:",
      "saldoMon": 0.00,
      "st5Key": "st5_sk_difrealiz",
      "id": 7
    },
    {
      "nameSaldo": "Передано по смене:",
      "saldoMon": 266342.29,
      "st5Key": "st5_sk_endcash",
      "id": 8
    }
  ],
  "trk": [
    {
      "articleName": "GD95",
      "beginBookRest": 15267.190,
      "beginBookRestMass": 11556.467,
      "beginCounter": 6929.270,
      "beginFactRest": 15260.226,
      "beginFactRestMass": 11450.673,
      "bookExpenseVol": 1817.000,
      "commonLev": 1562,
      "deficitMass": 0.000,
      "deficitVol": 0.000,
      "endBookRest": 13450.190,
      "endBookRestMass": 10191.587,
      "endCounter": 7392.140,
      "endFactRest": 13439.766,
      "endFactRestMass": 10090.576,
      "errorNozzle": null,
      "errorNozzleRel": null,
      "expenseMass": 1364.880,
      "expenseVol": 462.870,
      "externalStrID": "10",
      "measurementMsg": "",
      "mernikVol": null,
      "nozzle": 11,
      "pipeMass": 148.658,
      "pipeVol": 198.000,
      "receipMmass": 0.000,
      "receipt": 0.000,
      "relocMass": 0.000,
      "relocVol": 0.000,
      "surplusMass": 47.647,
      "surplusVol": 187.576,
      "tankDensity": 0.750800,
      "tankID": 1,
      "tankName": "1",
      "trkNo": 1,
      "waterLev": 0,
      "id": 4
    },
    {
      "articleName": "GD95",
      "beginBookRest": 15267.190,
      "beginBookRestMass": 11556.467,
      "beginCounter": 5123.370,
      "beginFactRest": 15260.226,
      "beginFactRestMass": 11450.673,
      "bookExpenseVol": 1817.000,
      "commonLev": 1562,
      "deficitMass": 0.000,
      "deficitVol": 0.000,
      "endBookRest": 13450.190,
      "endBookRestMass": 10191.587,
      "endCounter": 5397.720,
      "endFactRest": 13439.766,
      "endFactRestMass": 10090.576,
      "errorNozzle": null,
      "errorNozzleRel": null,
      "expenseMass": 1364.880,
      "expenseVol": 274.350,
      "externalStrID": "10",
      "measurementMsg": "",
      "mernikVol": null,
      "nozzle": 21,
      "pipeMass": 148.658,
      "pipeVol": 198.000,
      "receipMmass": 0.000,
      "receipt": 0.000,
      "relocMass": 0.000,
      "relocVol": 0.000,
      "surplusMass": 47.647,
      "surplusVol": 187.576,
      "tankDensity": 0.750800,
      "tankID": 1,
      "tankName": "1",
      "trkNo": 2,
      "waterLev": 0,
      "id": 12
    },
    {
      "articleName": "GD95",
      "beginBookRest": 15267.190,
      "beginBookRestMass": 11556.467,
      "beginCounter": 6179.320,
      "beginFactRest": 15260.226,
      "beginFactRestMass": 11450.673,
      "bookExpenseVol": 1817.000,
      "commonLev": 1562,
      "deficitMass": 0.000,
      "deficitVol": 0.000,
      "endBookRest": 13450.190,
      "endBookRestMass": 10191.587,
      "endCounter": 6855.370,
      "endFactRest": 13439.766,
      "endFactRestMass": 10090.576,
      "errorNozzle": null,
      "errorNozzleRel": null,
      "expenseMass": 1364.880,
      "expenseVol": 676.050,
      "externalStrID": "10",
      "measurementMsg": "",
      "mernikVol": null,
      "nozzle": 31,
      "pipeMass": 148.658,
      "pipeVol": 198.000,
      "receipMmass": 0.000,
      "receipt": 0.000,
      "relocMass": 0.000,
      "relocVol": 0.000,
      "surplusMass": 47.647,
      "surplusVol": 187.576,
      "tankDensity": 0.750800,
      "tankID": 1,
      "tankName": "1",
      "trkNo": 3,
      "waterLev": 0,
      "id": 14
    },
    {
      "articleName": "GD95",
      "beginBookRest": 15267.190,
      "beginBookRestMass": 11556.467,
      "beginCounter": 4000.850,
      "beginFactRest": 15260.226,
      "beginFactRestMass": 11450.673,
      "bookExpenseVol": 1817.000,
      "commonLev": 1562,
      "deficitMass": 0.000,
      "deficitVol": 0.000,
      "endBookRest": 13450.190,
      "endBookRestMass": 10191.587,
      "endCounter": 4404.580,
      "endFactRest": 13439.766,
      "endFactRestMass": 10090.576,
      "errorNozzle": null,
      "errorNozzleRel": null,
      "expenseMass": 1364.880,
      "expenseVol": 403.730,
      "externalStrID": "10",
      "measurementMsg": "",
      "mernikVol": null,
      "nozzle": 41,
      "pipeMass": 148.658,
      "pipeVol": 198.000,
      "receipMmass": 0.000,
      "receipt": 0.000,
      "relocMass": 0.000,
      "relocVol": 0.000,
      "surplusMass": 47.647,
      "surplusVol": 187.576,
      "tankDensity": 0.750800,
      "tankID": 1,
      "tankName": "1",
      "trkNo": 4,
      "waterLev": 0,
      "id": 10
    },
    {
      "articleName": "Аи-92",
      "beginBookRest": 35337.390,
      "beginBookRestMass": 26527.907,
      "beginCounter": 18425.690,
      "beginFactRest": 35206.953,
      "beginFactRestMass": 26244.674,
      "bookExpenseVol": 5293.730,
      "commonLev": 1499,
      "deficitMass": 59.745,
      "deficitVol": 0.000,
      "endBookRest": 30043.660,
      "endBookRestMass": 22579.806,
      "endCounter": 19994.280,
      "endFactRest": 29931.303,
      "endFactRestMass": 22361.676,
      "errorNozzle": null,
      "errorNozzleRel": null,
      "expenseMass": 3948.101,
      "expenseVol": 1568.590,
      "externalStrID": "2",
      "measurementMsg": "",
      "mernikVol": null,
      "nozzle": 13,
      "pipeMass": 158.385,
      "pipeVol": 212.000,
      "receipMmass": 0.000,
      "receipt": 0.000,
      "relocMass": 0.000,
      "relocVol": 0.000,
      "surplusMass": 0.000,
      "surplusVol": 99.643,
      "tankDensity": 0.747100,
      "tankID": 3,
      "tankName": "3",
      "trkNo": 1,
      "waterLev": 0,
      "id": 16
    },
    {
      "articleName": "Аи-92",
      "beginBookRest": 35337.390,
      "beginBookRestMass": 26527.907,
      "beginCounter": 18858.840,
      "beginFactRest": 35206.953,
      "beginFactRestMass": 26244.674,
      "bookExpenseVol": 5293.730,
      "commonLev": 1499,
      "deficitMass": 59.745,
      "deficitVol": 0.000,
      "endBookRest": 30043.660,
      "endBookRestMass": 22579.806,
      "endCounter": 20522.150,
      "endFactRest": 29931.303,
      "endFactRestMass": 22361.676,
      "errorNozzle": null,
      "errorNozzleRel": null,
      "expenseMass": 3948.101,
      "expenseVol": 1663.310,
      "externalStrID": "2",
      "measurementMsg": "",
      "mernikVol": null,
      "nozzle": 23,
      "pipeMass": 158.385,
      "pipeVol": 212.000,
      "receipMmass": 0.000,
      "receipt": 0.000,
      "relocMass": 0.000,
      "relocVol": 0.000,
      "surplusMass": 0.000,
      "surplusVol": 99.643,
      "tankDensity": 0.747100,
      "tankID": 3,
      "tankName": "3",
      "trkNo": 2,
      "waterLev": 0,
      "id": 5
    },
    {
      "articleName": "Аи-92",
      "beginBookRest": 35337.390,
      "beginBookRestMass": 26527.907,
      "beginCounter": 18362.380,
      "beginFactRest": 35206.953,
      "beginFactRestMass": 26244.674,
      "bookExpenseVol": 5293.730,
      "commonLev": 1499,
      "deficitMass": 59.745,
      "deficitVol": 0.000,
      "endBookRest": 30043.660,
      "endBookRestMass": 22579.806,
      "endCounter": 19481.640,
      "endFactRest": 29931.303,
      "endFactRestMass": 22361.676,
      "errorNozzle": null,
      "errorNozzleRel": null,
      "expenseMass": 3948.101,
      "expenseVol": 1119.260,
      "externalStrID": "2",
      "measurementMsg": "",
      "mernikVol": null,
      "nozzle": 33,
      "pipeMass": 158.385,
      "pipeVol": 212.000,
      "receipMmass": 0.000,
      "receipt": 0.000,
      "relocMass": 0.000,
      "relocVol": 0.000,
      "surplusMass": 0.000,
      "surplusVol": 99.643,
      "tankDensity": 0.747100,
      "tankID": 3,
      "tankName": "3",
      "trkNo": 3,
      "waterLev": 0,
      "id": 15
    },
    {
      "articleName": "Аи-92",
      "beginBookRest": 35337.390,
      "beginBookRestMass": 26527.907,
      "beginCounter": 13581.980,
      "beginFactRest": 35206.953,
      "beginFactRestMass": 26244.674,
      "bookExpenseVol": 5293.730,
      "commonLev": 1499,
      "deficitMass": 59.745,
      "deficitVol": 0.000,
      "endBookRest": 30043.660,
      "endBookRestMass": 22579.806,
      "endCounter": 14524.550,
      "endFactRest": 29931.303,
      "endFactRestMass": 22361.676,
      "errorNozzle": null,
      "errorNozzleRel": null,
      "expenseMass": 3948.101,
      "expenseVol": 942.570,
      "externalStrID": "2",
      "measurementMsg": "",
      "mernikVol": null,
      "nozzle": 43,
      "pipeMass": 158.385,
      "pipeVol": 212.000,
      "receipMmass": 0.000,
      "receipt": 0.000,
      "relocMass": 0.000,
      "relocVol": 0.000,
      "surplusMass": 0.000,
      "surplusVol": 99.643,
      "tankDensity": 0.747100,
      "tankID": 3,
      "tankName": "3",
      "trkNo": 4,
      "waterLev": 0,
      "id": 6
    },
    {
      "articleName": "АИ-95",
      "beginBookRest": 33680.030,
      "beginBookRestMass": 25643.580,
      "beginCounter": 20533.980,
      "beginFactRest": 33649.594,
      "beginFactRestMass": 25346.135,
      "bookExpenseVol": 5587.600,
      "commonLev": 1431,
      "deficitMass": 126.984,
      "deficitVol": 0.000,
      "endBookRest": 28092.430,
      "endBookRestMass": 21437.373,
      "endCounter": 22028.670,
      "endFactRest": 28043.621,
      "endFactRestMass": 21150.499,
      "errorNozzle": null,
      "errorNozzleRel": null,
      "expenseMass": 4206.207,
      "expenseVol": 1494.690,
      "externalStrID": "4",
      "measurementMsg": "",
      "mernikVol": null,
      "nozzle": 12,
      "pipeMass": 159.890,
      "pipeVol": 212.000,
      "receipMmass": 0.000,
      "receipt": 0.000,
      "relocMass": 0.000,
      "relocVol": 0.000,
      "surplusMass": 0.000,
      "surplusVol": 163.191,
      "tankDensity": 0.754200,
      "tankID": 2,
      "tankName": "2",
      "trkNo": 1,
      "waterLev": 0,
      "id": 1
    },
    {
      "articleName": "АИ-95",
      "beginBookRest": 33680.030,
      "beginBookRestMass": 25643.580,
      "beginCounter": 17758.780,
      "beginFactRest": 33649.594,
      "beginFactRestMass": 25346.135,
      "bookExpenseVol": 5587.600,
      "commonLev": 1431,
      "deficitMass": 126.984,
      "deficitVol": 0.000,
      "endBookRest": 28092.430,
      "endBookRestMass": 21437.373,
      "endCounter": 18922.570,
      "endFactRest": 28043.621,
      "endFactRestMass": 21150.499,
      "errorNozzle": null,
      "errorNozzleRel": null,
      "expenseMass": 4206.207,
      "expenseVol": 1163.790,
      "externalStrID": "4",
      "measurementMsg": "",
      "mernikVol": null,
      "nozzle": 22,
      "pipeMass": 159.890,
      "pipeVol": 212.000,
      "receipMmass": 0.000,
      "receipt": 0.000,
      "relocMass": 0.000,
      "relocVol": 0.000,
      "surplusMass": 0.000,
      "surplusVol": 163.191,
      "tankDensity": 0.754200,
      "tankID": 2,
      "tankName": "2",
      "trkNo": 2,
      "waterLev": 0,
      "id": 13
    },
    {
      "articleName": "АИ-95",
      "beginBookRest": 33680.030,
      "beginBookRestMass": 25643.580,
      "beginCounter": 23712.610,
      "beginFactRest": 33649.594,
      "beginFactRestMass": 25346.135,
      "bookExpenseVol": 5587.600,
      "commonLev": 1431,
      "deficitMass": 126.984,
      "deficitVol": 0.000,
      "endBookRest": 28092.430,
      "endBookRestMass": 21437.373,
      "endCounter": 25634.860,
      "endFactRest": 28043.621,
      "endFactRestMass": 21150.499,
      "errorNozzle": null,
      "errorNozzleRel": null,
      "expenseMass": 4206.207,
      "expenseVol": 1922.250,
      "externalStrID": "4",
      "measurementMsg": "",
      "mernikVol": null,
      "nozzle": 32,
      "pipeMass": 159.890,
      "pipeVol": 212.000,
      "receipMmass": 0.000,
      "receipt": 0.000,
      "relocMass": 0.000,
      "relocVol": 0.000,
      "surplusMass": 0.000,
      "surplusVol": 163.191,
      "tankDensity": 0.754200,
      "tankID": 2,
      "tankName": "2",
      "trkNo": 3,
      "waterLev": 0,
      "id": 18
    },
    {
      "articleName": "АИ-95",
      "beginBookRest": 33680.030,
      "beginBookRestMass": 25643.580,
      "beginCounter": 12838.630,
      "beginFactRest": 33649.594,
      "beginFactRestMass": 25346.135,
      "bookExpenseVol": 5587.600,
      "commonLev": 1431,
      "deficitMass": 126.984,
      "deficitVol": 0.000,
      "endBookRest": 28092.430,
      "endBookRestMass": 21437.373,
      "endCounter": 13845.500,
      "endFactRest": 28043.621,
      "endFactRestMass": 21150.499,
      "errorNozzle": null,
      "errorNozzleRel": null,
      "expenseMass": 4206.207,
      "expenseVol": 1006.870,
      "externalStrID": "4",
      "measurementMsg": "",
      "mernikVol": null,
      "nozzle": 42,
      "pipeMass": 159.890,
      "pipeVol": 212.000,
      "receipMmass": 0.000,
      "receipt": 0.000,
      "relocMass": 0.000,
      "relocVol": 0.000,
      "surplusMass": 0.000,
      "surplusVol": 163.191,
      "tankDensity": 0.754200,
      "tankID": 2,
      "tankName": "2",
      "trkNo": 4,
      "waterLev": 0,
      "id": 2
    },
    {
      "articleName": "ДтОпти",
      "beginBookRest": 22099.990,
      "beginBookRestMass": 18577.197,
      "beginCounter": 4784.730,
      "beginFactRest": 22027.004,
      "beginFactRestMass": 18269.520,
      "bookExpenseVol": 7165.710,
      "commonLev": 1354,
      "deficitMass": 59.520,
      "deficitVol": 0.000,
      "endBookRest": 14934.280,
      "endBookRestMass": 12632.156,
      "endCounter": 5085.220,
      "endFactRest": 14827.526,
      "endFactRestMass": 12321.674,
      "errorNozzle": null,
      "errorNozzleRel": null,
      "expenseMass": 5945.041,
      "expenseVol": 300.490,
      "externalStrID": "24",
      "measurementMsg": "",
      "mernikVol": null,
      "nozzle": 14,
      "pipeMass": 250.962,
      "pipeVol": 302.000,
      "receipMmass": 0.000,
      "receipt": 0.000,
      "relocMass": 0.000,
      "relocVol": 0.000,
      "surplusMass": 0.000,
      "surplusVol": 195.246,
      "tankDensity": 0.831000,
      "tankID": 4,
      "tankName": "4",
      "trkNo": 1,
      "waterLev": 0,
      "id": 11
    },
    {
      "articleName": "ДтОпти",
      "beginBookRest": 22099.990,
      "beginBookRestMass": 18577.197,
      "beginCounter": 11044.830,
      "beginFactRest": 22027.004,
      "beginFactRestMass": 18269.520,
      "bookExpenseVol": 7165.710,
      "commonLev": 1354,
      "deficitMass": 59.520,
      "deficitVol": 0.000,
      "endBookRest": 14934.280,
      "endBookRestMass": 12632.156,
      "endCounter": 12019.030,
      "endFactRest": 14827.526,
      "endFactRestMass": 12321.674,
      "errorNozzle": null,
      "errorNozzleRel": null,
      "expenseMass": 5945.041,
      "expenseVol": 974.200,
      "externalStrID": "24",
      "measurementMsg": "",
      "mernikVol": null,
      "nozzle": 24,
      "pipeMass": 250.962,
      "pipeVol": 302.000,
      "receipMmass": 0.000,
      "receipt": 0.000,
      "relocMass": 0.000,
      "relocVol": 0.000,
      "surplusMass": 0.000,
      "surplusVol": 195.246,
      "tankDensity": 0.831000,
      "tankID": 4,
      "tankName": "4",
      "trkNo": 2,
      "waterLev": 0,
      "id": 17
    },
    {
      "articleName": "ДтОпти",
      "beginBookRest": 22099.990,
      "beginBookRestMass": 18577.197,
      "beginCounter": 4305.320,
      "beginFactRest": 22027.004,
      "beginFactRestMass": 18269.520,
      "bookExpenseVol": 7165.710,
      "commonLev": 1354,
      "deficitMass": 59.520,
      "deficitVol": 0.000,
      "endBookRest": 14934.280,
      "endBookRestMass": 12632.156,
      "endCounter": 4579.470,
      "endFactRest": 14827.526,
      "endFactRestMass": 12321.674,
      "errorNozzle": null,
      "errorNozzleRel": null,
      "expenseMass": 5945.041,
      "expenseVol": 274.150,
      "externalStrID": "24",
      "measurementMsg": "",
      "mernikVol": null,
      "nozzle": 34,
      "pipeMass": 250.962,
      "pipeVol": 302.000,
      "receipMmass": 0.000,
      "receipt": 0.000,
      "relocMass": 0.000,
      "relocVol": 0.000,
      "surplusMass": 0.000,
      "surplusVol": 195.246,
      "tankDensity": 0.831000,
      "tankID": 4,
      "tankName": "4",
      "trkNo": 3,
      "waterLev": 0,
      "id": 3
    },
    {
      "articleName": "ДтОпти",
      "beginBookRest": 22099.990,
      "beginBookRestMass": 18577.197,
      "beginCounter": 13239.490,
      "beginFactRest": 22027.004,
      "beginFactRestMass": 18269.520,
      "bookExpenseVol": 7165.710,
      "commonLev": 1354,
      "deficitMass": 59.520,
      "deficitVol": 0.000,
      "endBookRest": 14934.280,
      "endBookRestMass": 12632.156,
      "endCounter": 14502.880,
      "endFactRest": 14827.526,
      "endFactRestMass": 12321.674,
      "errorNozzle": null,
      "errorNozzleRel": null,
      "expenseMass": 5945.041,
      "expenseVol": 1263.390,
      "externalStrID": "24",
      "measurementMsg": "",
      "mernikVol": null,
      "nozzle": 44,
      "pipeMass": 250.962,
      "pipeVol": 302.000,
      "receipMmass": 0.000,
      "receipt": 0.000,
      "relocMass": 0.000,
      "relocVol": 0.000,
      "surplusMass": 0.000,
      "surplusVol": 195.246,
      "tankDensity": 0.831000,
      "tankID": 4,
      "tankName": "4",
      "trkNo": 4,
      "waterLev": 0,
      "id": 8
    },
    {
      "articleName": "ДтОпти",
      "beginBookRest": 22099.990,
      "beginBookRestMass": 18577.197,
      "beginCounter": 15924.940,
      "beginFactRest": 22027.004,
      "beginFactRestMass": 18269.520,
      "bookExpenseVol": 7165.710,
      "commonLev": 1354,
      "deficitMass": 59.520,
      "deficitVol": 0.000,
      "endBookRest": 14934.280,
      "endBookRestMass": 12632.156,
      "endCounter": 18513.610,
      "endFactRest": 14827.526,
      "endFactRestMass": 12321.674,
      "errorNozzle": null,
      "errorNozzleRel": null,
      "expenseMass": 5945.041,
      "expenseVol": 2588.670,
      "externalStrID": "24",
      "measurementMsg": "",
      "mernikVol": null,
      "nozzle": 51,
      "pipeMass": 250.962,
      "pipeVol": 302.000,
      "receipMmass": 0.000,
      "receipt": 0.000,
      "relocMass": 0.000,
      "relocVol": 0.000,
      "surplusMass": 0.000,
      "surplusVol": 195.246,
      "tankDensity": 0.831000,
      "tankID": 4,
      "tankName": "4",
      "trkNo": 5,
      "waterLev": 0,
      "id": 7
    },
    {
      "articleName": "ДтОпти",
      "beginBookRest": 22099.990,
      "beginBookRestMass": 18577.197,
      "beginCounter": 14877.700,
      "beginFactRest": 22027.004,
      "beginFactRestMass": 18269.520,
      "bookExpenseVol": 7165.710,
      "commonLev": 1354,
      "deficitMass": 59.520,
      "deficitVol": 0.000,
      "endBookRest": 14934.280,
      "endBookRestMass": 12632.156,
      "endCounter": 16642.510,
      "endFactRest": 14827.526,
      "endFactRestMass": 12321.674,
      "errorNozzle": null,
      "errorNozzleRel": null,
      "expenseMass": 5945.041,
      "expenseVol": 1764.810,
      "externalStrID": "24",
      "measurementMsg": "",
      "mernikVol": null,
      "nozzle": 61,
      "pipeMass": 250.962,
      "pipeVol": 302.000,
      "receipMmass": 0.000,
      "receipt": 0.000,
      "relocMass": 0.000,
      "relocVol": 0.000,
      "surplusMass": 0.000,
      "surplusVol": 195.246,
      "tankDensity": 0.831000,
      "tankID": 4,
      "tankName": "4",
      "trkNo": 6,
      "waterLev": 0,
      "id": 9
    }
  ],
  "username": "Зыкова А.А."
}